{
    "menu": [
      {
        "name": "Dashboards",
        "url":"home",
        "icon": "home",
        "slug": "home"
      },
      {
        "name": "Bills",
        "url":"buyer/bills",
        "icon": "list",
        "slug": "buyer/bills"
      }
    ]
  }
  